# Fdb version 3
["pdflatex"] 1415866863 "introduction.tex" "introduction.pdf" "introduction" 1415866863
  "introduction.aux" 1415626124 8 a94a2480d3289e625eea47cd1b285758 ""
  "introduction.tex" 1415866862 3772 a22712c7f7479e514df0765b745e2c68 ""
  (generated)
  "introduction.pdf"
  "introduction.log"
