\contentsline {chapter}{\numberline {1}Introduction}{1}{chapter.1}
\contentsline {chapter}{\numberline {2}Theoretical Background}{2}{chapter.2}
\contentsline {chapter}{\numberline {3}Experimental Setup}{4}{chapter.3}
\contentsline {chapter}{\numberline {4}Results and Analysis}{5}{chapter.4}
\contentsline {chapter}{\numberline {5}Conclusion}{6}{chapter.5}
