X,CH1,Start,Increment,
Sequence,Volt,-9.800000e-02,1.000000e-03
0,-4.80e-02,
1,-7.20e-02,
2,-6.40e-02,
3,-8.00e-02,
4,-7.20e-02,
5,-8.80e-02,
6,-8.00e-02,
7,-1.04e-01,
8,-8.80e-02,
9,-1.12e-01,
10,-1.04e-01,
11,-1.20e-01,
12,-1.12e-01,
13,-1.36e-01,
14,-1.20e-01,
15,-1.44e-01,
16,-1.36e-01,
17,-1.60e-01,
18,-1.44e-01,
19,-1.60e-01,
20,-1.52e-01,
21,-1.76e-01,
22,-1.68e-01,
23,-1.84e-01,
24,-1.76e-01,
25,-1.92e-01,
26,-1.84e-01,
27,-2.00e-01,
28,-1.92e-01,
29,-2.08e-01,
30,-2.00e-01,
31,-2.16e-01,
32,-2.08e-01,
33,-2.24e-01,
34,-2.08e-01,
35,-2.32e-01,
36,-2.32e-01,
37,-2.16e-01,
38,-2.24e-01,
39,-2.40e-01,
40,-2.40e-01,
41,-2.24e-01,
42,-2.40e-01,
43,-2.24e-01,
44,-2.40e-01,
45,-2.24e-01,
46,-2.24e-01,
47,-2.40e-01,
48,-2.32e-01,
49,-2.16e-01,
50,-2.32e-01,
51,-2.08e-01,
52,-2.24e-01,
53,-2.08e-01,
54,-2.16e-01,
55,-2.00e-01,
56,-2.08e-01,
57,-1.84e-01,
58,-2.00e-01,
59,-1.84e-01,
60,-1.92e-01,
61,-1.68e-01,
62,-1.76e-01,
63,-1.52e-01,
64,-1.68e-01,
65,-1.44e-01,
66,-1.52e-01,
67,-1.28e-01,
68,-1.44e-01,
69,-1.20e-01,
70,-1.28e-01,
71,-1.04e-01,
72,-1.20e-01,
73,-8.80e-02,
74,-1.04e-01,
75,-8.00e-02,
76,-8.80e-02,
77,-6.40e-02,
78,-7.20e-02,
79,-4.80e-02,
80,-5.60e-02,
81,-4.00e-02,
82,-4.80e-02,
83,-2.40e-02,
84,-3.20e-02,
85,-8.00e-03,
86,-1.60e-02,
87,0.00e+00,
88,-8.00e-03,
89,1.60e-02,
90,0.00e+00,
91,2.40e-02,
92,1.60e-02,
93,3.20e-02,
94,2.40e-02,
95,4.80e-02,
96,4.00e-02,
97,5.60e-02,
98,4.80e-02,
99,6.40e-02,
100,5.60e-02,
101,7.20e-02,
102,6.40e-02,
103,8.00e-02,
104,7.20e-02,
105,8.80e-02,
106,8.00e-02,
107,9.60e-02,
108,8.00e-02,
109,9.60e-02,
110,8.80e-02,
111,1.04e-01,
112,9.60e-02,
113,1.12e-01,
114,1.12e-01,
115,9.60e-02,
116,1.12e-01,
117,1.04e-01,
118,1.04e-01,
119,1.20e-01,
120,1.20e-01,
121,1.04e-01,
122,1.20e-01,
123,1.04e-01,
124,1.20e-01,
125,1.12e-01,
126,1.20e-01,
127,1.04e-01,
128,1.20e-01,
129,1.12e-01,
130,1.20e-01,
131,1.04e-01,
132,1.04e-01,
133,1.20e-01,
134,8.96e-01,
135,-4.88e-01,
136,-4.80e-01,
137,-4.48e-01,
138,-4.56e-01,
139,-4.16e-01,
140,-4.24e-01,
141,-3.92e-01,
142,-4.00e-01,
143,-3.68e-01,
144,-3.84e-01,
145,-3.52e-01,
146,-3.60e-01,
147,-3.28e-01,
148,-3.36e-01,
149,-3.12e-01,
150,-3.20e-01,
151,-2.88e-01,
152,-2.96e-01,
153,-2.72e-01,
154,-2.80e-01,
155,-2.56e-01,
156,-2.64e-01,
157,-2.40e-01,
158,-2.48e-01,
159,-2.24e-01,
160,-2.32e-01,
161,-2.08e-01,
162,-2.16e-01,
163,-1.92e-01,
164,-2.08e-01,
165,-1.84e-01,
166,-1.92e-01,
167,-1.76e-01,
168,-1.84e-01,
169,-1.68e-01,
170,-1.76e-01,
171,-1.52e-01,
172,-1.68e-01,
173,-1.52e-01,
174,-1.60e-01,
175,-1.44e-01,
176,-1.52e-01,
177,-1.36e-01,
178,-1.44e-01,
179,-1.28e-01,
180,-1.28e-01,
181,-1.44e-01,
182,-1.36e-01,
183,-1.20e-01,
184,-1.36e-01,
185,-1.20e-01,
186,-1.20e-01,
187,-1.28e-01,
188,-1.28e-01,
189,-1.12e-01,
190,-1.12e-01,
191,-1.28e-01,
192,-1.28e-01,
193,-1.12e-01,
194,-1.12e-01,
195,-1.28e-01,
196,-1.28e-01,
197,-1.12e-01,
198,-1.28e-01,
199,-1.12e-01,
200,-1.28e-01,
201,-1.20e-01,
202,-1.20e-01,
203,-1.36e-01,
204,-1.20e-01,
205,-1.36e-01,
206,-1.28e-01,
207,-1.36e-01,
208,-1.28e-01,
209,-1.44e-01,
210,-1.28e-01,
211,-1.44e-01,
212,-1.44e-01,
213,-1.28e-01,
214,-1.36e-01,
215,-1.52e-01,
216,-1.52e-01,
217,-1.36e-01,
218,-1.44e-01,
219,-1.60e-01,
220,-1.60e-01,
221,-1.44e-01,
222,-1.60e-01,
223,-1.44e-01,
224,-1.52e-01,
225,-1.68e-01,
226,-1.52e-01,
227,-1.68e-01,
228,-1.52e-01,
229,-1.68e-01,
230,-1.68e-01,
231,-1.52e-01,
232,-1.52e-01,
233,-1.68e-01,
234,-1.68e-01,
235,-1.52e-01,
236,-1.68e-01,
237,-1.52e-01,
238,-1.60e-01,
239,-1.44e-01,
240,-1.44e-01,
241,-1.60e-01,
242,-1.52e-01,
243,-1.36e-01,
244,-1.44e-01,
245,-1.28e-01,
246,-1.36e-01,
247,-1.12e-01,
248,-1.28e-01,
249,-1.04e-01,
250,-1.20e-01,
251,-8.80e-02,
252,-1.04e-01,
253,-7.20e-02,
254,-8.80e-02,
255,-6.40e-02,
256,-7.20e-02,
257,-4.80e-02,
258,-5.60e-02,
259,-2.40e-02,
260,-4.00e-02,
261,-8.00e-03,
262,-1.60e-02,
263,8.00e-03,
264,0.00e+00,
265,3.20e-02,
266,2.40e-02,
267,4.80e-02,
268,4.00e-02,
269,7.20e-02,
270,6.40e-02,
271,9.60e-02,
272,8.00e-02,
273,1.12e-01,
274,1.12e-01,
275,1.44e-01,
276,1.36e-01,
277,1.68e-01,
278,1.52e-01,
279,1.84e-01,
280,1.76e-01,
281,2.08e-01,
282,1.92e-01,
283,2.24e-01,
284,2.16e-01,
285,2.40e-01,
286,2.32e-01,
287,2.64e-01,
288,2.48e-01,
289,2.80e-01,
290,2.72e-01,
291,2.96e-01,
292,2.88e-01,
293,3.12e-01,
294,2.96e-01,
295,3.28e-01,
296,3.12e-01,
297,3.36e-01,
298,3.28e-01,
299,3.52e-01,
300,3.44e-01,
301,3.68e-01,
302,3.52e-01,
303,3.76e-01,
304,3.68e-01,
305,3.84e-01,
306,3.76e-01,
307,4.00e-01,
308,3.84e-01,
309,4.08e-01,
310,4.00e-01,
311,4.16e-01,
312,4.08e-01,
313,4.24e-01,
314,4.08e-01,
315,4.32e-01,
316,4.16e-01,
317,4.32e-01,
318,4.24e-01,
319,4.40e-01,
320,4.32e-01,
321,4.48e-01,
322,4.48e-01,
323,4.40e-01,
324,4.40e-01,
325,4.56e-01,
326,4.56e-01,
327,4.48e-01,
328,4.48e-01,
329,4.64e-01,
330,4.64e-01,
331,4.48e-01,
332,4.64e-01,
333,4.48e-01,
334,4.64e-01,
335,4.56e-01,
336,4.64e-01,
337,4.56e-01,
338,4.56e-01,
339,4.72e-01,
340,4.56e-01,
341,4.72e-01,
342,4.56e-01,
343,4.64e-01,
344,4.64e-01,
345,4.56e-01,
346,4.64e-01,
347,4.56e-01,
348,4.64e-01,
349,4.56e-01,
350,4.64e-01,
351,4.48e-01,
352,4.48e-01,
353,4.64e-01,
354,4.64e-01,
355,4.48e-01,
356,4.56e-01,
357,4.48e-01,
358,4.56e-01,
359,4.48e-01,
360,4.56e-01,
361,4.40e-01,
362,4.40e-01,
363,4.48e-01,
364,4.48e-01,
365,4.32e-01,
366,4.48e-01,
367,4.32e-01,
368,4.40e-01,
369,4.32e-01,
370,4.40e-01,
371,4.24e-01,
372,4.40e-01,
373,4.24e-01,
374,4.24e-01,
375,4.32e-01,
376,4.32e-01,
377,4.16e-01,
378,4.32e-01,
379,4.16e-01,
380,4.16e-01,
381,4.32e-01,
382,4.16e-01,
383,4.24e-01,
384,4.24e-01,
385,4.16e-01,
386,4.24e-01,
387,4.08e-01,
388,4.24e-01,
389,4.08e-01,
390,4.24e-01,
391,4.08e-01,
392,4.24e-01,
393,4.08e-01,
394,4.24e-01,
395,4.08e-01,
396,4.24e-01,
397,4.08e-01,
398,4.16e-01,
399,4.24e-01,
400,4.16e-01,
401,4.32e-01,
402,4.16e-01,
403,4.32e-01,
404,4.32e-01,
405,4.16e-01,
406,4.32e-01,
407,4.16e-01,
408,4.24e-01,
409,4.40e-01,
410,4.24e-01,
411,4.40e-01,
412,4.40e-01,
413,4.32e-01,
414,4.32e-01,
415,4.48e-01,
416,4.48e-01,
417,4.40e-01,
418,4.40e-01,
419,4.56e-01,
420,4.56e-01,
421,4.48e-01,
422,4.48e-01,
423,4.64e-01,
424,4.64e-01,
425,4.48e-01,
426,4.56e-01,
427,4.72e-01,
428,4.72e-01,
429,4.56e-01,
430,4.64e-01,
431,4.80e-01,
432,4.64e-01,
433,4.80e-01,
434,4.80e-01,
435,4.64e-01,
436,4.72e-01,
437,4.80e-01,
438,4.80e-01,
439,4.72e-01,
440,4.80e-01,
441,4.72e-01,
442,4.80e-01,
443,4.72e-01,
444,4.80e-01,
445,4.72e-01,
446,4.80e-01,
447,4.72e-01,
448,4.80e-01,
449,4.64e-01,
450,4.80e-01,
451,4.64e-01,
452,4.80e-01,
453,4.64e-01,
454,4.72e-01,
455,4.56e-01,
456,4.72e-01,
457,4.56e-01,
458,4.64e-01,
459,4.56e-01,
460,4.64e-01,
461,4.48e-01,
462,4.56e-01,
463,4.48e-01,
464,4.56e-01,
465,4.40e-01,
466,4.48e-01,
467,4.40e-01,
468,4.48e-01,
469,4.32e-01,
470,4.40e-01,
471,4.24e-01,
472,4.40e-01,
473,4.16e-01,
474,4.32e-01,
475,4.16e-01,
476,4.24e-01,
477,4.08e-01,
478,4.08e-01,
479,4.24e-01,
480,4.16e-01,
481,4.00e-01,
482,4.08e-01,
483,3.92e-01,
484,4.00e-01,
485,3.84e-01,
486,4.00e-01,
487,3.76e-01,
488,3.76e-01,
489,3.92e-01,
490,3.84e-01,
491,3.68e-01,
492,3.76e-01,
493,3.60e-01,
494,3.68e-01,
495,3.52e-01,
496,3.60e-01,
497,3.44e-01,
498,3.44e-01,
499,3.60e-01,
500,3.36e-01,
501,3.52e-01,
502,3.44e-01,
503,3.28e-01,
504,3.36e-01,
505,3.20e-01,
506,3.28e-01,
507,3.12e-01,
508,3.20e-01,
509,3.04e-01,
510,3.12e-01,
511,2.96e-01,
512,3.04e-01,
513,2.88e-01,
514,2.96e-01,
515,2.80e-01,
516,2.88e-01,
517,2.72e-01,
518,2.80e-01,
519,2.64e-01,
520,2.72e-01,
521,2.56e-01,
522,2.64e-01,
523,2.48e-01,
524,2.56e-01,
525,2.40e-01,
526,2.48e-01,
527,2.32e-01,
528,2.40e-01,
529,2.24e-01,
530,2.32e-01,
531,2.08e-01,
532,2.16e-01,
533,2.00e-01,
534,2.16e-01,
535,1.92e-01,
536,2.00e-01,
537,1.84e-01,
538,1.92e-01,
539,1.68e-01,
540,1.76e-01,
541,1.60e-01,
542,1.68e-01,
543,1.52e-01,
544,1.60e-01,
545,1.36e-01,
546,1.44e-01,
547,1.28e-01,
548,1.28e-01,
549,1.12e-01,
550,1.20e-01,
551,9.60e-02,
552,1.12e-01,
553,8.80e-02,
554,9.60e-02,
555,8.00e-02,
556,8.80e-02,
557,6.40e-02,
558,7.20e-02,
559,5.60e-02,
560,6.40e-02,
561,4.00e-02,
562,5.60e-02,
563,3.20e-02,
564,4.00e-02,
565,2.40e-02,
566,3.20e-02,
567,1.60e-02,
568,2.40e-02,
569,8.00e-03,
570,1.60e-02,
571,0.00e+00,
572,8.00e-03,
573,-8.00e-03,
574,0.00e+00,
575,-1.60e-02,
576,-8.00e-03,
577,-2.40e-02,
578,-2.40e-02,
579,-8.00e-03,
580,-1.60e-02,
581,-3.20e-02,
582,-2.40e-02,
583,-4.00e-02,
584,-4.00e-02,
585,-2.40e-02,
586,-4.00e-02,
587,-3.20e-02,
588,-3.20e-02,
589,-4.80e-02,
590,-3.20e-02,
591,-4.80e-02,
592,-4.00e-02,
593,-4.80e-02,
594,-4.80e-02,
595,-4.00e-02,
596,-4.00e-02,
597,-4.80e-02,
598,-4.00e-02,
599,-5.60e-02,
600,-4.00e-02,
601,-5.60e-02,
602,-4.00e-02,
603,-5.60e-02,
604,-4.00e-02,
605,-5.60e-02,
606,-4.00e-02,
607,-5.60e-02,
608,-4.00e-02,
609,-5.60e-02,
610,-4.00e-02,
611,-5.60e-02,
612,-4.00e-02,
613,-5.60e-02,
614,-4.00e-02,
615,-5.60e-02,
616,-4.00e-02,
617,-5.60e-02,
618,-4.00e-02,
619,-5.60e-02,
620,-4.00e-02,
621,-5.60e-02,
622,-4.00e-02,
623,-5.60e-02,
624,-4.00e-02,
625,-5.60e-02,
626,-5.60e-02,
627,-4.00e-02,
628,-5.60e-02,
629,-4.00e-02,
630,-5.60e-02,
631,-4.00e-02,
632,-4.80e-02,
633,-5.60e-02,
634,-4.80e-02,
635,-5.60e-02,
636,-4.80e-02,
637,-6.40e-02,
638,-6.40e-02,
639,-4.80e-02,
640,-5.60e-02,
641,-6.40e-02,
642,-5.60e-02,
643,-7.20e-02,
644,-5.60e-02,
645,-7.20e-02,
646,-7.20e-02,
647,-6.40e-02,
648,-6.40e-02,
649,-8.00e-02,
650,-6.40e-02,
651,-8.00e-02,
652,-7.20e-02,
653,-8.80e-02,
654,-7.20e-02,
655,-8.80e-02,
656,-8.00e-02,
657,-9.60e-02,
658,-9.60e-02,
659,-8.00e-02,
660,-8.80e-02,
661,-1.04e-01,
662,-8.80e-02,
663,-1.12e-01,
664,-1.12e-01,
665,-9.60e-02,
666,-1.04e-01,
667,-1.20e-01,
668,-1.12e-01,
669,-1.28e-01,
670,-1.20e-01,
671,-1.36e-01,
672,-1.28e-01,
673,-1.44e-01,
674,-1.28e-01,
675,-1.52e-01,
676,-1.36e-01,
677,-1.60e-01,
678,-1.44e-01,
679,-1.68e-01,
680,-1.52e-01,
681,-1.76e-01,
682,-1.68e-01,
683,-1.84e-01,
684,-1.76e-01,
685,-1.92e-01,
686,-1.84e-01,
687,-2.08e-01,
688,-1.92e-01,
689,-2.16e-01,
690,-2.08e-01,
691,-2.24e-01,
692,-2.16e-01,
693,-2.40e-01,
694,-2.32e-01,
695,-2.48e-01,
696,-2.40e-01,
697,-2.64e-01,
698,-2.56e-01,
699,-2.80e-01,
700,-2.64e-01,
701,-2.88e-01,
702,-2.80e-01,
703,-3.04e-01,
704,-2.88e-01,
705,-3.12e-01,
706,-3.04e-01,
707,-3.28e-01,
708,-3.12e-01,
709,-3.36e-01,
710,-3.20e-01,
711,-3.44e-01,
712,-3.36e-01,
713,-3.60e-01,
714,-3.44e-01,
715,-3.68e-01,
716,-3.60e-01,
717,-3.76e-01,
718,-3.60e-01,
719,-3.84e-01,
720,-3.68e-01,
721,-3.92e-01,
722,-3.76e-01,
723,-3.92e-01,
724,-3.84e-01,
725,-4.00e-01,
726,-3.84e-01,
727,-4.08e-01,
728,-3.92e-01,
729,-4.08e-01,
730,-3.92e-01,
731,-4.08e-01,
732,-3.92e-01,
733,-4.08e-01,
734,-4.00e-01,
735,-3.84e-01,
736,-4.00e-01,
737,-3.84e-01,
738,-3.92e-01,
739,-3.76e-01,
740,-3.92e-01,
741,-3.68e-01,
742,-3.84e-01,
743,-3.60e-01,
744,-3.76e-01,
745,-3.52e-01,
746,-3.68e-01,
747,-3.44e-01,
748,-3.60e-01,
749,-3.36e-01,
750,-3.44e-01,
751,-3.20e-01,
752,-3.36e-01,
753,-3.12e-01,
754,-3.20e-01,
755,-2.96e-01,
756,-3.12e-01,
757,-2.88e-01,
758,-2.96e-01,
759,-2.72e-01,
760,-2.80e-01,
761,-2.64e-01,
762,-2.64e-01,
763,-2.40e-01,
764,-2.56e-01,
765,-2.32e-01,
766,-2.40e-01,
767,-2.16e-01,
768,-2.32e-01,
769,-2.08e-01,
770,-2.16e-01,
771,-2.00e-01,
772,-2.08e-01,
773,-1.84e-01,
774,-1.92e-01,
775,-1.76e-01,
776,-1.84e-01,
777,-1.60e-01,
778,-1.76e-01,
779,-1.52e-01,
780,-1.68e-01,
781,-1.44e-01,
782,-1.60e-01,
783,-1.36e-01,
784,-1.44e-01,
785,-1.28e-01,
786,-1.36e-01,
787,-1.20e-01,
788,-1.36e-01,
789,-1.12e-01,
790,-1.28e-01,
791,-1.12e-01,
792,-1.20e-01,
793,-1.04e-01,
794,-1.12e-01,
795,-9.60e-02,
796,-9.60e-02,
797,-1.12e-01,
798,-1.04e-01,
799,-9.60e-02,
800,-1.04e-01,
801,-8.80e-02,
802,-8.80e-02,
803,-1.04e-01,
804,-8.80e-02,
805,-9.60e-02,
806,-8.80e-02,
807,-9.60e-02,
808,-9.60e-02,
809,-8.80e-02,
810,-9.60e-02,
811,-8.80e-02,
812,-9.60e-02,
813,-8.80e-02,
814,-9.60e-02,
815,-8.80e-02,
816,-8.80e-02,
817,-1.04e-01,
818,-8.80e-02,
819,-1.04e-01,
820,-1.04e-01,
821,-8.80e-02,
822,-9.60e-02,
823,-1.12e-01,
824,-9.60e-02,
825,-1.12e-01,
826,-1.04e-01,
827,-1.20e-01,
828,-1.20e-01,
829,-1.04e-01,
830,-1.12e-01,
831,-1.28e-01,
832,-1.20e-01,
833,-1.36e-01,
834,-1.28e-01,
835,-1.44e-01,
836,-1.28e-01,
837,-1.52e-01,
838,-1.36e-01,
839,-1.60e-01,
840,-1.44e-01,
841,-1.68e-01,
842,-1.52e-01,
843,-1.76e-01,
844,-1.60e-01,
845,-1.84e-01,
846,-1.76e-01,
847,-1.92e-01,
848,-1.84e-01,
849,-2.00e-01,
850,-1.92e-01,
851,-2.16e-01,
852,-2.00e-01,
853,-2.24e-01,
854,-2.16e-01,
855,-2.32e-01,
856,-2.24e-01,
857,-2.40e-01,
858,-2.32e-01,
859,-2.56e-01,
860,-2.48e-01,
861,-2.72e-01,
862,-2.64e-01,
863,-2.88e-01,
864,-2.72e-01,
865,-2.96e-01,
866,-2.80e-01,
867,-3.04e-01,
868,-2.96e-01,
869,-3.12e-01,
870,-3.04e-01,
871,-3.28e-01,
872,-3.12e-01,
873,-3.36e-01,
874,-3.28e-01,
875,-3.44e-01,
876,-3.36e-01,
877,-3.52e-01,
878,-3.44e-01,
879,-3.60e-01,
880,-3.44e-01,
881,-3.68e-01,
882,-3.68e-01,
883,-3.52e-01,
884,-3.60e-01,
885,-3.76e-01,
886,-3.60e-01,
887,-3.76e-01,
888,-3.76e-01,
889,-3.60e-01,
890,-3.76e-01,
891,-3.60e-01,
892,-3.76e-01,
893,-3.60e-01,
894,-3.60e-01,
895,-3.76e-01,
896,-3.68e-01,
897,-3.52e-01,
898,-3.60e-01,
899,-3.44e-01,
900,-3.60e-01,
901,-3.36e-01,
902,-3.52e-01,
903,-3.28e-01,
904,-3.44e-01,
905,-3.20e-01,
906,-3.28e-01,
907,-3.04e-01,
908,-3.12e-01,
909,-2.96e-01,
910,-3.04e-01,
911,-2.80e-01,
912,-2.88e-01,
913,-2.64e-01,
914,-2.72e-01,
915,-2.48e-01,
916,-2.56e-01,
917,-2.32e-01,
918,-2.40e-01,
919,-2.16e-01,
920,-2.24e-01,
921,-2.00e-01,
922,-2.08e-01,
923,-1.84e-01,
924,-1.92e-01,
925,-1.68e-01,
926,-1.76e-01,
927,-1.52e-01,
928,-1.60e-01,
929,-1.36e-01,
930,-1.44e-01,
931,-1.20e-01,
932,-1.28e-01,
933,-1.04e-01,
934,-1.20e-01,
935,-9.60e-02,
936,-1.04e-01,
937,-8.00e-02,
938,-8.80e-02,
939,-6.40e-02,
940,-8.00e-02,
941,-5.60e-02,
942,-6.40e-02,
943,-4.00e-02,
944,-5.60e-02,
945,-3.20e-02,
946,-4.00e-02,
947,-2.40e-02,
948,-3.20e-02,
949,-1.60e-02,
950,-2.40e-02,
951,-8.00e-03,
952,-1.60e-02,
953,0.00e+00,
954,-8.00e-03,
955,8.00e-03,
956,0.00e+00,
957,1.60e-02,
958,1.60e-02,
959,0.00e+00,
960,8.00e-03,
961,2.40e-02,
962,2.40e-02,
963,8.00e-03,
964,1.60e-02,
965,3.20e-02,
966,3.20e-02,
967,1.60e-02,
968,3.20e-02,
969,1.60e-02,
970,3.20e-02,
971,1.60e-02,
972,3.20e-02,
973,1.60e-02,
974,3.20e-02,
975,1.60e-02,
976,1.60e-02,
977,3.20e-02,
978,3.20e-02,
979,1.60e-02,
980,1.60e-02,
981,3.20e-02,
982,2.40e-02,
983,8.00e-03,
984,2.40e-02,
985,8.00e-03,
986,8.00e-03,
987,2.40e-02,
988,1.60e-02,
989,0.00e+00,
990,8.00e-03,
991,0.00e+00,
992,8.00e-03,
993,-8.00e-03,
994,8.00e-03,
995,-1.60e-02,
996,0.00e+00,
997,-1.60e-02,
998,-8.00e-03,
999,-2.40e-02,
1000,-1.60e-02,
1001,-3.20e-02,
1002,-2.40e-02,
1003,-4.00e-02,
1004,-3.20e-02,
1005,-4.80e-02,
1006,-4.00e-02,
1007,-5.60e-02,
1008,-4.80e-02,
1009,-6.40e-02,
1010,-5.60e-02,
1011,-7.20e-02,
1012,-6.40e-02,
1013,-8.00e-02,
1014,-7.20e-02,
1015,-9.60e-02,
1016,-8.80e-02,
1017,-1.04e-01,
1018,-9.60e-02,
1019,-1.12e-01,
1020,-1.04e-01,
1021,-1.28e-01,
1022,-1.20e-01,
1023,-1.36e-01,
1024,-1.28e-01,
1025,-1.52e-01,
1026,-1.36e-01,
1027,-1.60e-01,
1028,-1.52e-01,
1029,-1.68e-01,
1030,-1.60e-01,
1031,-1.76e-01,
1032,-1.68e-01,
1033,-1.92e-01,
1034,-1.76e-01,
1035,-2.00e-01,
1036,-1.84e-01,
1037,-2.08e-01,
1038,-1.92e-01,
1039,-2.16e-01,
1040,-2.16e-01,
1041,-2.00e-01,
1042,-2.08e-01,
1043,-2.24e-01,
1044,-2.16e-01,
1045,-2.32e-01,
1046,-2.32e-01,
1047,-2.16e-01,
1048,-2.24e-01,
1049,-2.40e-01,
1050,-2.40e-01,
1051,-2.24e-01,
1052,-2.24e-01,
1053,-2.40e-01,
1054,-2.40e-01,
1055,-2.24e-01,
1056,-2.24e-01,
1057,-2.40e-01,
1058,-2.32e-01,
1059,-2.16e-01,
1060,-2.24e-01,
1061,-2.08e-01,
1062,-2.16e-01,
1063,-2.08e-01,
1064,-2.16e-01,
1065,-1.92e-01,
1066,-2.08e-01,
1067,-1.84e-01,
1068,-2.00e-01,
1069,-1.76e-01,
1070,-1.84e-01,
1071,-1.60e-01,
1072,-1.76e-01,
1073,-1.52e-01,
1074,-1.60e-01,
1075,-1.36e-01,
1076,-1.52e-01,
1077,-1.28e-01,
1078,-1.36e-01,
1079,-1.12e-01,
1080,-1.20e-01,
1081,-9.60e-02,
1082,-1.12e-01,
1083,-8.80e-02,
1084,-9.60e-02,
1085,-7.20e-02,
1086,-8.00e-02,
1087,-5.60e-02,
1088,-6.40e-02,
1089,-4.00e-02,
1090,-5.60e-02,
1091,-3.20e-02,
1092,-4.00e-02,
1093,-1.60e-02,
1094,-2.40e-02,
1095,-8.00e-03,
1096,-1.60e-02,
1097,8.00e-03,
1098,0.00e+00,
1099,1.60e-02,
1100,8.00e-03,
1101,3.20e-02,
1102,1.60e-02,
1103,4.00e-02,
1104,3.20e-02,
1105,4.80e-02,
1106,4.00e-02,
1107,6.40e-02,
1108,4.80e-02,
1109,7.20e-02,
1110,5.60e-02,
1111,8.00e-02,
1112,6.40e-02,
1113,8.00e-02,
1114,7.20e-02,
1115,8.80e-02,
1116,8.00e-02,
1117,9.60e-02,
1118,8.80e-02,
1119,1.04e-01,
1120,8.80e-02,
1121,1.04e-01,
1122,9.60e-02,
1123,1.12e-01,
1124,1.12e-01,
1125,1.04e-01,
1126,1.04e-01,
1127,1.20e-01,
1128,1.20e-01,
1129,1.04e-01,
1130,1.12e-01,
1131,1.20e-01,
1132,1.20e-01,
1133,1.12e-01,
1134,1.20e-01,
1135,1.12e-01,
1136,1.20e-01,
1137,1.12e-01,
1138,1.20e-01,
1139,1.04e-01,
1140,1.20e-01,
1141,1.04e-01,
1142,1.12e-01,
1143,1.04e-01,
1144,9.04e-01,
1145,-4.88e-01,
1146,-4.72e-01,
1147,-4.40e-01,
1148,-4.48e-01,
1149,-4.08e-01,
1150,-4.24e-01,
1151,-3.84e-01,
1152,-3.92e-01,
1153,-3.60e-01,
1154,-3.68e-01,
1155,-3.44e-01,
1156,-3.52e-01,
1157,-3.20e-01,
1158,-3.28e-01,
1159,-3.04e-01,
1160,-3.12e-01,
1161,-2.80e-01,
1162,-2.96e-01,
1163,-2.72e-01,
1164,-2.80e-01,
1165,-2.56e-01,
1166,-2.56e-01,
1167,-2.32e-01,
1168,-2.40e-01,
1169,-2.16e-01,
1170,-2.24e-01,
1171,-2.08e-01,
1172,-2.16e-01,
1173,-1.92e-01,
1174,-2.00e-01,
1175,-1.84e-01,
1176,-1.92e-01,
1177,-1.68e-01,
1178,-1.84e-01,
1179,-1.60e-01,
1180,-1.76e-01,
1181,-1.52e-01,
1182,-1.68e-01,
1183,-1.44e-01,
1184,-1.60e-01,
1185,-1.44e-01,
1186,-1.52e-01,
1187,-1.28e-01,
1188,-1.44e-01,
1189,-1.28e-01,
1190,-1.28e-01,
1191,-1.36e-01,
1192,-1.36e-01,
1193,-1.20e-01,
1194,-1.20e-01,
1195,-1.36e-01,
1196,-1.28e-01,
1197,-1.12e-01,
1198,-1.28e-01,
1199,-1.12e-01,
